{
  "version": "1.24.6",
  "architecture": {
    "64bit": {
      "url": [
        "https://gstreamer.freedesktop.org/data/pkg/windows/1.24.6/msvc/gstreamer-1.0-devel-msvc-x86_64-1.24.6.msi",
        "https://gstreamer.freedesktop.org/data/pkg/windows/1.24.6/msvc/gstreamer-1.0-msvc-x86_64-1.24.6.msi"
      ],
      "hash": [
        "961d0a5c960170f783ef89c339c0860170d6fa0a4e6589e4a7605fda7d850599",
        "320715bbda6ca19fd10f9c8441eb14718749c78dd467346f5673d79800a7eed7"
      ]
    }
  },
  "env_set": {
    "GSTREAMER_ROOT": "$dir\\gstreamer\\1.0\\msvc_x86_64",
    "PKG_CONFIG_PATH": "$env:GSTREAMER_ROOT\\lib\\pkgconfig"
  },
  "env_add_path": "gstreamer\\1.0\\msvc_x86_64\\bin",
  "checkver": {
    "url": "https://gstreamer.freedesktop.org/data/pkg/windows/",
    "re": "(\\d+?\\.\\d+?\\.\\d+?)/",
    "reverse": true
  },
  "autoupdate": {
    "architecture": {
      "64bit": {
        "url": [
          "https://gstreamer.freedesktop.org/data/pkg/windows/$version/msvc/gstreamer-1.0-devel-msvc-x86_64-$version.msi",
          "https://gstreamer.freedesktop.org/data/pkg/windows/$version/msvc/gstreamer-1.0-msvc-x86_64-$version.msi"
        ]
      },
      "hash": {
        "url": "$url.sha256sum"
      }
    }
  }
}
