{
  "version": "17.10.4",
  "architecture": {
    "64bit": {
      "url": "https://download.visualstudio.microsoft.com/download/pr/7593f7f0-1b5b-43e1-b0a4-cceb004343ca/9a5b493178cde0ec0aa3543d3285c3e037956119ca426aaed14f59d24fe62e90/vs_BuildTools.exe",
      "hash": "9a5b493178cde0ec0aa3543d3285c3e037956119ca426aaed14f59d24fe62e90"
    }
  },
  "installer": {
    "args": [
      "--quiet",
      "--wait",
      "--norestart",
      "--nocache",
      "--installPath",
      "\"$dir\"\\vs",
      "--add",
      "Microsoft.VisualStudio.Workload.VCTools",
      "--add",
      "Microsoft.VisualStudio.Component.VC.Tools.x86.x64",
      "--add",
      "Microsoft.VisualStudio.Component.Windows10SDK.20348"
    ]
  }
}
